66728 676795 509
716755 270975 509
765321 779107 468
161216 229654 386
147591 143090 357
731444 353928 509
675340 489915 509
566672 680988 509
343427 258817 407
244479 507431 449
292813 431561 449
509116 659106 509
117930 672616 509
731703 916232 525
629713 757887 504
107813 422171 449
107288 987719 525
190482 324115 443
45550 476493 449
160115 661949 509
508770 391514 449
412484 313737 449
426480 405682 449
99157 27997 351
622462 751006 509
750213 520709 509
189832 769668 509
239508 410975 449
243631 142167 443
797887 774240 468
331850 256878 407
673655 380453 509
756284 998600 525
133035 517414 470
5369 143895 375
20875 20614 256
718079 962549 525
811224 794988 468
750767 602756 509
106566 439385 449
809690 245671 509
499890 760712 509
819327 671071 504
660266 555279 509
372345 996727 525
770179 443815 509
445746 374492 449
373676 701567 509
723515 893783 525
655626 939118 525
137324 874040 525
370554 638264 509
600334 628357 509
383184 536046 470
147537 176811 383
703500 41245 509
909146 967219 507
209171 148116 383
556249 220607 470
569928 278438 470
984866 162558 525
285737 508944 449
972819 749900 525
802787 690431 504
143188 842212 525
837554 736866 468
828370 39488 509
494517 647883 509
284271 734754 509
480153 632971 509
944254 400708 525
398439 322150 441
293497 79123 443
640004 450426 509
731002 674663 504
98384 721683 509
373134 898257 525
52451 444340 449
21228 742878 509
287647 905992 525
741330 738448 424
832442 965755 525
213250 503465 449
285495 269283 407
789307 453771 509
990986 156564 525
518926 244602 470
496118 901035 525
659198 963901 525
961012 803397 525
262387 721716 509
61344 882603 525
241843 745508 509
638531 70586 509
778023 592976 509
565100 444680 470
817405 82199 509
782216 105373 509
819609 135582 509
221280 974817 525
398982 972798 525
137673 134541 344
321779 233042 407
359366 553204 470
595978 113816 470
952227 461207 525
59427 117973 354
248760 552766 470
607173 508224 470
268321 325381 407
868035 544814 525
676242 724773 504
58077 416430 449
130633 393700 443
292886 156561 443
954953 327704 525
786892 249679 509
817513 834269 450
31974 250793 443
588256 563251 434
156591 43757 383
591959 337247 470
680347 490275 509
719904 540106 509
656465 423244 509
173398 723974 509
627276 944338 525
696890 50141 509
912545 723653 525
389141 644387 509
330784 687342 509
223859 803043 509
473820 928256 525
164853 567778 470
204543 728252 509
384735 119791 443
529070 47025 470
332851 651201 509
634165 475262 509
610122 868343 525
620015 432349 470
405889 571536 470
556417 415710 470
46123 827503 509
359479 844827 525
564796 917256 525
78215 517226 470
12171 361241 443
466556 22826 449
102378 934558 525
309138 967471 525
82350 505055 449
481649 723856 509
285005 319411 389
60872 462837 449
629340 573872 509
561120 817324 509
309157 684222 509
643286 770354 504
734765 3779 509
636736 251830 509
71560 766601 509
966921 490883 525
470294 310968 449
133768 79296 354
297895 489033 449
914531 361735 525
771915 228839 509
670087 654577 442
260528 617417 470
580642 339449 470
394145 929487 525
417160 943944 525
237214 982396 525
558700 350722 470
172303 408354 443
549949 370338 470
361205 132486 443
243108 140474 443
792374 196147 509
808883 671455 504
929280 237498 525
477418 347204 449
293882 9079 443
580228 235665 470
806642 833900 450
750877 22772 509
747645 131160 509
306467 845205 525
722383 978449 525
23627 348390 443
22170 59130 340
904561 98355 525
121473 333421 443
12776 843486 525
459602 149802 449
37972 727320 509
603195 203936 470
961985 335620 525
105890 487687 449
367529 157230 443
179410 286755 443
457456 667288 509
658864 301152 509
133068 89906 354
10509 225678 386
351864 248385 441
917496 386831 525
840101 366308 525
542347 37589 470
407177 899323 525
404455 848724 525
355254 657170 509
460135 56597 449
852328 931687 476
628157 214294 509
85237 802195 509
776226 349798 509
795390 699164 504
662263 269787 509
943787 5338 525
105707 911115 525
300171 685762 509
153567 813119 509
998365 665692 525
246037 925684 525
498284 657519 509
637707 13643 509
896038 774118 525
409953 61866 443
330553 99902 443
451288 129916 449
61494 220093 386
911943 892175 476
75881 152046 375
830870 831688 419
699565 463903 509
207195 240972 443
964879 492253 525
894211 60571 525
571288 62762 470
625966 362878 470
20308 810631 509
278603 893138 525
202361 287185 443
603814 695395 509
124238 795312 509
949978 517947 525
155237 30875 375
509484 384953 449
302273 923613 525
329971 601157 470
464185 28820 449
866290 513303 525
153430 473706 449
55314 720155 509
621242 821544 509
945690 886866 507
806354 980080 525
757292 410144 509
471063 792630 509
588579 919998 525
131260 234050 443
301591 180230 443
379151 86905 443
621755 27695 470
440722 332667 449
322391 309971 384
150043 99018 375
740792 521046 509
740209 659983 504
239142 445101 449
582785 393801 470
724542 62956 509
970645 717006 525
322311 226304 443
141119 205127 383
477859 538646 470
118761 149167 375
16255 816853 509
351623 231344 441
239220 138223 443
232752 909444 525
735098 605209 509
309264 60310 443
400195 169146 443
284982 592741 470
125816 646071 509
355086 552926 470
309444 421469 449
146197 718853 509
95740 320873 443
209684 320586 443
25616 578832 470
954073 536164 525
597427 144221 470
489973 955650 525
87536 497651 449
641554 580069 509
185638 859080 525
