219398 848888
381596 904360
180404 291115
482944 703511
104729 539839
48452 894108
160707 843505
888080 908269
656673 857841
233478 166272
192648 57570
730154 571964
810029 326367
467247 620919
768000 378285
92589 858937
611236 543972
72933 76743
81459 661226
699289 964014
990787 158372
492205 786979
871920 503783
629146 487319
154457 662624
516766 828095
380584 783227
662408 214926
323758 141813
802646 619248
664755 903103
187354 336997
561570 541933
674730 969978
687324 919883
858421 26301
866532 241317
214874 178097
639090 690370
913092 241458
608179 580311
848238 201640
267008 717035
996809 761089
297671 924934
800764 284428
632677 503821
197108 551538
384069 605644
135254 905666
568695 909944
300570 733248
303551 155927
212177 629110
617157 693041
135550 375938
26632 417326
799233 444517
170639 940284
308810 526573
569288 507397
219649 153666
835512 491543
573858 181113
455633 377592
561584 658566
347445 459957
767354 732510
267879 54124
675955 16090
782079 598370
309123 728164
619423 192144
385794 773958
917389 13953
537316 798107
502075 942956
992621 85403
684987 411976
112128 789347
265939 746279
727580 896191
493391 117849
79009 770446
24937 453437
966277 101955
890674 900557
747661 472094
669713 348642
893641 458029
978788 247170
499400 908770
728566 83750
526301 831596
791031 651235
861169 314047
125235 389926
998877 790959
514895 477619
124297 914830
393891 303377
325581 989176
686093 496307
93557 828425
654690 898333
756209 81340
185835 16817
779567 867787
747844 347
531639 659820
31577 288203
903557 790300
648825 608725
423593 741195
44331 73298
820159 275358
695307 807676
763507 717465
658134 371359
347082 809692
135831 558732
220200 753256
386166 526154
818864 992548
732882 459882
691200 461023
196460 262145
535922 93172
306777 37254
59992 413728
763742 547267
742358 142982
899911 69356
727405 367840
188844 380134
269670 121561
556909 610423
75322 778596
394278 663749
562522 331432
144135 204770
248938 151471
169891 168529
824438 291134
578302 733073
773710 336302
519401 894850
355773 1655
19329 270777
946350 251600
21056 251120
295669 254386
930889 643882
788173 486369
547713 557278
46883 522578
227513 802594
427774 733776
131383 359127
63475 370830
259275 371536
985919 380534
770983 773283
402644 406368
162382 828460
535119 771476
696939 410470
35382 185856
884414 621652
208906 286308
931593 938042
377453 368187
889773 534007
318827 154386
207190 986663
428031 147348
481221 883906
690191 924785
277262 291539
98279 426401
180634 744951
228579 291245
537155 542033
827322 64365
924783 641078
363264 701595
976415 187510
306154 648651
512374 480522
1392 241850
991641 995434
87383 359581
677551 276900
750124 466789
965133 184695
565502 511393
310570 145812
260652 418879
205306 329487
629117 694590
426715 783612
12714 898696
492640 720267
591653 55234
874551 683582
8186 628736
365726 664273
170681 109558
518047 465242
168712 683635
787455 808207
248803 19504
693718 404773
566301 603472
537212 866762
962263 92172
339572 308080
324806 233155
136466 717030
384269 125038
