117781 709855
461965 889842
289583 626005
854776 12264
215092 75894
566204 692887
119275 42738
973146 37968
325555 99044
993199 384632
326142 888668
34090 15577
568959 895548
966009 334371
733183 934005
388531 767203
199057 229969
210276 344241
22457 6165
819368 932621
749201 105576
701090 123640
911921 101396
672762 359084
271901 500772
267828 739948
359244 526207
706478 680934
778875 764667
973281 383309
323172 784711
569680 254835
214962 499613
961444 113237
818083 398501
675780 30188
375843 849285
423751 316105
696770 42896
68537 377277
651562 206671
880438 518415
397980 379241
516644 862728
170571 383854
270335 841731
975189 319332
784114 668459
628125 642377
449291 872804
368433 156430
187684 399174
36009 296058
334461 323181
692613 22760
864073 154565
281362 592950
790003 157878
109663 120362
646573 257543
603931 829732
289375 901280
154682 421720
634995 96145
567825 446271
928108 493725
842011 510828
513385 252033
785282 676331
284806 580258
373862 461126
869138 409985
23794 331776
739010 534943
303359 916544
101682 186247
150934 792865
656603 813971
504113 781075
253574 738911
974639 928911
70130 440039
186707 338692
446974 138811
830383 922546
702485 894240
335253 247123
932043 507619
893291 502816
562316 952101
590333 28279
322892 710332
699298 565206
602772 141756
869017 157191
425614 900097
129480 679846
779718 276953
813164 15763
561710 45095
747168 685946
353849 218956
712886 183930
215878 446339
826423 312062
239757 294939
986093 147137
1740 624077
473260 995327
866634 193646
301957 375761
288449 300141
429400 785069
355299 422450
47178 933117
474211 511625
72299 733765
42443 102694
910382 731053
676023 765226
127501 862829
542940 764995
471510 370890
746883 654841
277188 486827
345936 260274
917060 485953
99422 758724
228967 922088
445823 469536
814940 20218
578299 60617
997926 438060
215033 821327
91811 928729
366726 316322
428815 280709
644877 159192
578489 305082
705716 146879
278453 590748
345881 170562
763238 225256
719261 721691
107011 650781
370844 261415
980823 373980
106159 167136
87498 949033
230077 714480
847180 83929
960540 109119
148360 995790
71491 945013
943465 344715
712001 92644
201402 28663
95959 838800
876687 54742
620668 671144
619170 748255
591278 350431
573910 171547
495828 931935
742156 497970
291949 749655
226326 714437
245180 640474
816390 620587
421378 873866
642201 285316
238705 244523
835896 839566
700940 927222
433391 333224
156404 154686
870308 780954
986543 794202
827601 519986
851499 102319
388603 518320
902398 263262
611552 252985
762003 195614
253129 238936
150656 558668
117858 922581
160585 11661
985384 442905
694995 178581
34987 378073
41055 970271
910152 677172
505113 582216
147638 424157
607511 891863
565562 727230
457844 575209
536597 576145
790837 186937
308266 969623
896402 406861
573167 936313
191223 379588
970988 30613
771118 768078
436956 610086
570102 359025
56877 259421
534315 220999
554229 880974
39957 881224
696877 921805
10260 580831
785255 390154
320874 368715
551877 325953
108138 109712
991838 967372
797758 63891
514703 191239
380715 427653
531815 406941
242942 262113
317383 453285
469058 396238
483715 761507
836412 808206
22553 283236
88212 315572
113683 430363
519550 536229
105206 426984
174 88826
88770 752893
430786 487829
584927 653444
180146 565215
905846 71794
850069 36327
45189 144572
448185 771612
410725 262498
388602 834567
223622 926288
550177 359852
603227 130454
720522 381977
