117781 709855 509
461965 889842 525
289583 626005 470
854776 12264 525
215092 75894 383
566204 692887 509
119275 42738 354
973146 37968 525
325555 99044 443
993199 384632 525
326142 888668 525
34090 15577 308
568959 895548 525
966009 334371 525
733183 934005 525
388531 767203 509
199057 229969 386
210276 344241 443
22457 6165 279
819368 932621 525
749201 105576 509
701090 123640 509
911921 101396 525
672762 359084 509
271901 500772 449
267828 739948 509
359244 526207 470
706478 680934 504
778875 764667 468
973281 383309 525
323172 784711 509
569680 254835 470
214962 499613 449
961444 113237 525
818083 398501 509
675780 30188 509
375843 849285 525
423751 316105 449
696770 42896 509
68537 377277 443
651562 206671 509
880438 518415 525
397980 379241 436
516644 862728 525
170571 383854 443
270335 841731 525
975189 319332 525
784114 668459 504
628125 642377 416
449291 872804 525
368433 156430 443
187684 399174 443
36009 296058 443
334461 323181 384
692613 22760 509
864073 154565 525
281362 592950 470
790003 157878 509
109663 120362 349
646573 257543 509
603931 829732 509
289375 901280 525
154682 421720 449
634995 96145 509
567825 446271 470
928108 493725 525
842011 510828 525
513385 252033 470
785282 676331 504
284806 580258 470
373862 461126 449
869138 409985 525
23794 331776 443
739010 534943 509
303359 916544 525
101682 186247 383
150934 792865 509
656603 813971 504
504113 781075 509
253574 738911 509
974639 928911 507
70130 440039 449
186707 338692 443
446974 138811 449
830383 922546 525
702485 894240 525
335253 247123 407
932043 507619 525
893291 502816 525
562316 952101 525
590333 28279 470
322892 710332 509
699298 565206 509
602772 141756 470
869017 157191 525
425614 900097 525
129480 679846 509
779718 276953 509
813164 15763 509
561710 45095 470
747168 685946 504
353849 218956 443
712886 183930 509
215878 446339 449
826423 312062 509
239757 294939 407
986093 147137 525
1740 624077 470
473260 995327 525
866634 193646 525
301957 375761 441
288449 300141 389
429400 785069 509
355299 422450 449
47178 933117 525
474211 511625 426
72299 733765 509
42443 102694 351
910382 731053 525
676023 765226 504
127501 862829 525
542940 764995 509
471510 370890 449
746883 654841 504
277188 486827 449
345936 260274 407
917060 485953 525
99422 758724 509
228967 922088 525
445823 469536 444
814940 20218 509
578299 60617 470
997926 438060 525
215033 821327 509
91811 928729 525
366726 316322 441
428815 280709 449
644877 159192 509
578489 305082 470
705716 146879 509
278453 590748 470
345881 170562 443
763238 225256 509
719261 721691 411
107011 650781 509
370844 261415 441
980823 373980 525
106159 167136 383
87498 949033 525
230077 714480 509
847180 83929 525
960540 109119 525
148360 995790 525
71491 945013 525
943465 344715 525
712001 92644 509
201402 28663 383
95959 838800 525
876687 54742 525
620668 671144 509
619170 748255 509
591278 350431 470
573910 171547 470
495828 931935 525
742156 497970 509
291949 749655 509
226326 714437 509
245180 640474 509
816390 620587 509
421378 873866 525
642201 285316 509
238705 244523 368
835896 839566 525
700940 927222 525
433391 333224 449
156404 154686 383
870308 780954 525
986543 794202 525
827601 519986 509
851499 102319 525
388603 518320 470
902398 263262 525
611552 252985 470
762003 195614 509
253129 238936 368
150656 558668 470
117858 922581 525
160585 11661 383
985384 442905 525
694995 178581 509
34987 378073 443
41055 970271 525
910152 677172 525
505113 582216 470
147638 424157 449
607511 891863 525
565562 727230 509
457844 575209 470
536597 576145 452
790837 186937 509
308266 969623 525
896402 406861 525
573167 936313 525
191223 379588 443
970988 30613 525
771118 768078 393
436956 610086 470
570102 359025 470
56877 259421 443
534315 220999 470
554229 880974 525
39957 881224 525
696877 921805 525
10260 580831 470
785255 390154 509
320874 368715 441
551877 325953 470
108138 109712 292
991838 967372 458
797758 63891 509
514703 191239 470
380715 427653 449
531815 406941 470
242942 262113 363
317383 453285 449
469058 396238 449
483715 761507 509
836412 808206 450
22553 283236 443
88212 315572 443
113683 430363 449
519550 536229 408
105206 426984 449
174 88826 351
88770 752893 509
430786 487829 444
584927 653444 509
180146 565215 470
905846 71794 525
850069 36327 525
45189 144572 375
448185 771612 509
410725 262498 449
388602 834567 509
223622 926288 525
550177 359852 470
603227 130454 470
720522 381977 509
